2A SQL & R Deliverable
…
movie_watchers_analysis <- df %>% group_by(profile_name) %>% 
  summarise(
    movies_rated = sum(!is.na(rating)), 
    movies_not_watched = sum(is.na(rating)),
    total_watched_and_not_watched = n()
) %>% 
  arrange(desc(movies_rated))

print("Ranking The Users")

[1] "Ranking The Users"

print(movie_watchers_analysis)

# A tibble: 75 × 4
   profile_name    movies_rated movies_not_watched total_watched_and_not_watched
   <chr>                  <int>              <int>                         <int>
 1 Aaron Powell               6                  0                             6
 2 Bruce Stewart              6                  0                             6
 3 Jack Phillips              6                  0                             6
 4 Joshua Castillo            6                  0                             6
 5 Mary Jackson               6                  0                             6
 6 Phillip Snyder             6                  0                             6
 7 Walter Marshall            6                  0                             6
 8 Adam Gutierrez             5                  1                             6
 9 Alan Chavez                5                  1                             6
10 Bruce Harrison             5                  1                             6
# ℹ 65 more rows
…
#Users 
count_users <- df %>% 
  group_by(profile_name)%>%
  summarise(
    movies_rated = sum(!is.na(rating))
  ) %>% 
  arrange(desc(movies_rated))

print("Ratings Per User")

[1] "Ratings Per User"

print(count_users)

# A tibble: 75 × 2
   profile_name    movies_rated
   <chr>                  <int>
 1 Aaron Powell               6
 2 Bruce Stewart              6
 3 Jack Phillips              6
 4 Joshua Castillo            6
 5 Mary Jackson               6
 6 Phillip Snyder             6
 7 Walter Marshall            6
 8 Adam Gutierrez             5
 9 Alan Chavez                5
10 Bruce Harrison             5
# ℹ 65 more rows
…
